ch. 18 DID HW due 3.27.22
…
## # A tibble: 6 × 7
##   date                 hits keyword   geo   time                  gprop category
##   <dttm>              <dbl> <chr>     <chr> <chr>                 <chr>    <dbl>
## 1 2020-01-01 00:00:00     3 sourdough US    2020-01-01 2020-08-01 web          0
## 2 2020-01-02 00:00:00     2 sourdough US    2020-01-01 2020-08-01 web          0
## 3 2020-01-03 00:00:00     3 sourdough US    2020-01-01 2020-08-01 web          0
## 4 2020-01-04 00:00:00     3 sourdough US    2020-01-01 2020-08-01 web          0
## 5 2020-01-05 00:00:00     3 sourdough US    2020-01-01 2020-08-01 web          0
## 6 2020-01-06 00:00:00     2 sourdough US    2020-01-01 2020-08-01 web          0

sr <- sourdough |> select(date, hits, keyword) #limiting data to the variables we'll use and naming sr per instructions
sr

## # A tibble: 856 × 3
##    date                 hits keyword  
##    <dttm>              <dbl> <chr>    
##  1 2020-01-01 00:00:00     3 sourdough
##  2 2020-01-02 00:00:00     2 sourdough
##  3 2020-01-03 00:00:00     3 sourdough
##  4 2020-01-04 00:00:00     3 sourdough
##  5 2020-01-05 00:00:00     3 sourdough
##  6 2020-01-06 00:00:00     2 sourdough
##  7 2020-01-07 00:00:00     2 sourdough
##  8 2020-01-08 00:00:00     2 sourdough
##  9 2020-01-09 00:00:00     2 sourdough
## 10 2020-01-10 00:00:00     3 sourdough
## # … with 846 more rows
…
